{
  "formatVersion": 1,
  "database": {
    "version": 1,
    "identityHash": "d88165ec4322d1da35ccf32f677d5c35",
    "entities": [
      {
        "tableName": "playlist",
        "createSql": "CREATE TABLE IF NOT EXISTS `${TABLE_NAME}` (`id` INTEGER PRIMARY KEY AUTOINCREMENT NOT NULL, `name` TEXT NOT NULL, `tracks` TEXT NOT NULL, `isFavorite` INTEGER NOT NULL)",
        "fields": [
          {
            "fieldPath": "id",
            "columnName": "id",
            "affinity": "INTEGER",
            "notNull": true
          },
          {
            "fieldPath": "name",
            "columnName": "name",
            "affinity": "TEXT",
            "notNull": true
          },
          {
            "fieldPath": "tracks",
            "columnName": "tracks",
            "affinity": "TEXT",
            "notNull": true
          },
          {
            "fieldPath": "isFavorite",
            "columnName": "isFavorite",
            "affinity": "INTEGER",
            "notNull": true
          }
        ],
        "primaryKey": {
          "columnNames": [
            "id"
          ],
          "autoGenerate": true
        },
        "indices": [],
        "foreignKeys": []
      },
      {
        "tableName": "track",
        "createSql": "CREATE TABLE IF NOT EXISTS `${TABLE_NAME}` (`count` INTEGER NOT NULL, `isFavorite` INTEGER NOT NULL, `isLastPlay` INTEGER NOT NULL, `position` INTEGER NOT NULL, `id` INTEGER NOT NULL, `title` TEXT NOT NULL, `text` TEXT NOT NULL, `file` TEXT, `image` TEXT, `duration` INTEGER NOT NULL, `artist` TEXT NOT NULL, `artistId` INTEGER NOT NULL, `album` TEXT NOT NULL, `albumId` INTEGER NOT NULL, `ringtone` INTEGER NOT NULL, `path` TEXT NOT NULL, PRIMARY KEY(`id`))",
        "fields": [
          {
            "fieldPath": "count",
            "columnName": "count",
            "affinity": "INTEGER",
            "notNull": true
          },
          {
            "fieldPath": "isFavorite",
            "columnName": "isFavorite",
            "affinity": "INTEGER",
            "notNull": true
          },
          {
            "fieldPath": "isLastPlay",
            "columnName": "isLastPlay",
            "affinity": "INTEGER",
            "notNull": true
          },
          {
            "fieldPath": "position",
            "columnName": "position",
            "affinity": "INTEGER",
            "notNull": true
          },
          {
            "fieldPath": "id",
            "columnName": "id",
            "affinity": "INTEGER",
            "notNull": true
          },
          {
            "fieldPath": "title",
            "columnName": "title",
            "affinity": "TEXT",
            "notNull": true
          },
          {
            "fieldPath": "text",
            "columnName": "text",
            "affinity": "TEXT",
            "notNull": true
          },
          {
            "fieldPath": "file",
            "columnName": "file",
            "affinity": "TEXT",
            "notNull": false
          },
          {
            "fieldPath": "image",
            "columnName": "image",
            "affinity": "TEXT",
            "notNull": false
          },
          {
            "fieldPath": "duration",
            "columnName": "duration",
            "affinity": "INTEGER",
            "notNull": true
          },
          {
            "fieldPath": "artist",
            "columnName": "artist",
            "affinity": "TEXT",
            "notNull": true
          },
          {
            "fieldPath": "artistId",
            "columnName": "artistId",
            "affinity": "INTEGER",
            "notNull": true
          },
          {
            "fieldPath": "album",
            "columnName": "album",
            "affinity": "TEXT",
            "notNull": true
          },
          {
            "fieldPath": "albumId",
            "columnName": "albumId",
            "affinity": "INTEGER",
            "notNull": true
          },
          {
            "fieldPath": "ringtone",
            "columnName": "ringtone",
            "affinity": "INTEGER",
            "notNull": true
          },
          {
            "fieldPath": "path",
            "columnName": "path",
            "affinity": "TEXT",
            "notNull": true
          }
        ],
        "primaryKey": {
          "columnNames": [
            "id"
          ],
          "autoGenerate": false
        },
        "indices": [],
        "foreignKeys": []
      },
      {
        "tableName": "current_track",
        "createSql": "CREATE TABLE IF NOT EXISTS `${TABLE_NAME}` (`track` TEXT, `id` INTEGER PRIMARY KEY AUTOINCREMENT NOT NULL)",
        "fields": [
          {
            "fieldPath": "track",
            "columnName": "track",
            "affinity": "TEXT",
            "notNull": false
          },
          {
            "fieldPath": "id",
            "columnName": "id",
            "affinity": "INTEGER",
            "notNull": true
          }
        ],
        "primaryKey": {
          "columnNames": [
            "id"
          ],
          "autoGenerate": true
        },
        "indices": [],
        "foreignKeys": []
      }
    ],
    "setupQueries": [
      "CREATE TABLE IF NOT EXISTS room_master_table (id INTEGER PRIMARY KEY,identity_hash TEXT)",
      "INSERT OR REPLACE INTO room_master_table (id,identity_hash) VALUES(42, \"d88165ec4322d1da35ccf32f677d5c35\")"
    ]
  }
}